[
  {"id": "1", "name": "Joao Couto", "number": "23193", "photo": "/assets/img/joaocouto.png"},
  {"id": "2", "name": "Maria Couto", "number": "43193", "photo": "/assets/img/joaocouto.png"},
  {"id": "3", "name": "Antonio Couto", "number": "33193", "photo": "/assets/img/joaocouto.png"},
  {"id": "4", "name": "Ana Couto", "number": "23293", "photo": "/assets/img/joaocouto.png"},
  {"id": "5", "name": "Joana Couto", "number": "33193", "photo": "/assets/img/joaocouto.png"}
]